…
 Residual standard error: 8388 on 372 degrees of freedom
 Multiple R-squared:  0.03471,	Adjusted R-squared:  -0.009402 
 F-statistic: 0.7869 on 17 and 372 DF,  p-value: 0.7087
 
AMF donations by  url
donate_amf_2016_c ### referrer_url
 # A tibble: 63 x 4
        group      mean    median         sd
        <chr>     <dbl>     <dbl>      <dbl>
  1       80K    64.480    64.480    0.00000
  2       ACE    46.250    42.500   41.50803
  3    Boston       NaN        NA         NA
  4  Brighton   967.280   967.280         NA
  5   Calgary       NaN        NA         NA
  6 Cambridge       NaN        NA        NaN
  7   Chicago 40000.000 40000.000         NA
  8     Czech       NaN        NA         NA
  9        DC       NaN        NA         NA
 10  EA Forum  1402.957   312.815 2602.63029
 # ... with 53 more rows
…
                        Sydney Taipei     UA Utilitarian FB Vancouver WAS FB
   Female               0.0000 0.3333 0.5000         0.0000    0.0000 0.5000
   Male                 0.5000 0.6667 0.5000         1.0000    1.0000 0.5000
   Other                0.0000 0.0000 0.0000         0.0000    0.0000 0.0000
   Prefer Not to Answer 0.5000 0.0000 0.0000         0.0000    0.0000 0.0000
 
 
 	Pearson's Chi-squared test
 
 data:  x and y
 X-squared = 212.11, df = 246, p-value = 0.9422
 
referrer URL x age
age ### referrer_url
 # A tibble: 100 x 4
         group  mean median       sd
         <chr> <dbl>  <dbl>    <dbl>
  1 .impact FB 19.00   19.0       NA
  2        80K 24.00   24.0       NA
  3        ACE 26.25   24.0 9.067209
  4   Bayreuth 20.00   20.0       NA
  5   Berkeley 31.00   31.0       NA
  6       Bern   NaN     NA       NA
  7     Boston 26.50   26.5 6.363961
  8   Brighton 29.00   29.0       NA
  9    Calgary   NaN     NA       NA
 10  Cambridge 23.25   23.5 2.500000
 # ... with 90 more rows
…
                                                                                                                                                                                                                                                                                                                                Munchen 
                                                                                                                                                                                                                                                                                                                                      1 
                                                                                                                                                                                                                                                                                                                            Netherlands 
                                                                                                                                                                                                                                                                                                                                      1 
                                                                                                                                                                                                                                                                                                                        Nick Bostrom FB 
                                                                                                                                                                                                                                                                                                                                      1 
                                                                                                                                                                                                                                                                                                                                 Oxford 
                                                                                                                                                                                                                                                                                                                                      1 
                                                                                                                                                                                                                                                                                                                         Utilitarian FB 
                                                                                                                                                                                                                                                                                                                                      1 
                                                                                                                                                                                                                                                                                                                              Vancouver 
                                                                                                                                                                                                                                                                                                                                      1 
referrer2 x age
age ### referrer2
 # A tibble: 100 x 4
         group  mean median       sd
         <chr> <dbl>  <dbl>    <dbl>
  1 .impact FB 19.00   19.0       NA
  2        80K 24.00   24.0       NA
  3        ACE 26.25   24.0 9.067209
  4   Bayreuth 20.00   20.0       NA
  5   Berkeley 31.00   31.0       NA
  6       Bern   NaN     NA       NA
  7     Boston 26.50   26.5 6.363961
  8   Brighton 29.00   29.0       NA
  9    Calgary   NaN     NA       NA
 10  Cambridge 23.25   23.5 2.500000
 # ... with 90 more rows
…
 Residual standard error: 7.124 on 460 degrees of freedom
 Multiple R-squared:  0.262,	Adjusted R-squared:  0.1321 
 F-statistic: 2.016 on 81 and 460 DF,  p-value: 3.629e-06
 
referrer2 x donation
donate_2016_c ### referrer2
 # A tibble: 63 x 4
       group       mean    median          sd
       <chr>      <dbl>     <dbl>       <dbl>
  1      80K   806.0650   806.065   866.35430
  2      ACE   113.3733   150.000    65.26635
  3 Berkeley        NaN        NA          NA
  4 Brighton  3869.1000  3869.100          NA
  5  Chicago 50000.0000 50000.000          NA
  6    Czech    87.5200    87.520          NA
  7       DC   800.0000   800.000          NA
  8  Denmark        NaN        NA          NA
  9 EA Forum 11852.8353  2751.430 35774.08681
 10 EA Memes    50.0000    50.000          NA
 # ... with 53 more rows
…
 Residual standard error: 158800 on 204 degrees of freedom
 Multiple R-squared:  0.008775,	Adjusted R-squared:  -0.239 
 F-statistic: 0.03541 on 51 and 204 DF,  p-value: 1
 
referrer2 x income
income_2016_individual_c ### referrer2
 # A tibble: 63 x 4
       group      mean    median        sd
       <chr>     <dbl>     <dbl>     <dbl>
  1      80K  31597.65  31597.65 19151.068
  2      ACE   6423.16   7605.00  4743.965
  3 Berkeley       NaN        NA        NA
  4 Brighton  45139.50  45139.50        NA
  5  Chicago 370000.00 370000.00        NA
  6    Czech  24067.45  24067.45        NA
  7       DC  63000.00  63000.00        NA
  8  Denmark       NaN        NA        NA
  9 EA Forum  54531.51  41270.40 58803.830
 10 EA Memes   9000.00   9000.00        NA
 # ... with 53 more rows
…
 Residual standard error: 568600 on 207 degrees of freedom
 Multiple R-squared:  0.01479,	Adjusted R-squared:  -0.2232 
 F-statistic: 0.06214 on 50 and 207 DF,  p-value: 1
 
referrer2 x % income donate
p_donate_2016 ### referrer2
 # A tibble: 47 x 4
       group        mean      median         sd
       <chr>       <dbl>       <dbl>      <dbl>
  1      80K 0.021071567 0.021071567 0.01464702
  2      ACE 0.014534884 0.014534884         NA
  3 Brighton 0.085714286 0.085714286         NA
  4  Chicago 0.135135135 0.135135135         NA
  5    Czech 0.003636447 0.003636447         NA
  6       DC 0.012698413 0.012698413         NA
  7 EA Forum 0.106885331 0.083333333 0.13975024
  8   EAA FB 0.086727472 0.063636364 0.08840076
  9     EAFB 0.138774840 0.100016728 0.16342233
 10  GWWC FB 0.142018252 0.111151961 0.10988399
 # ... with 37 more rows
…
