…
          Utilitarianism FB Group
   Female                  0.0000
   Male                    0.0000
   Other                   0.0000
   <NA>                    1.0000
 
 
 	Pearson's Chi-squared test
 
 data:  x and y
 X-squared = 3978, df = 26, p-value < 2.2e-16
 
referrer URL x age
age ### referrer_url
 # A tibble: 24 x 5
         referrer_url     N     mean median        sd
                <chr> <int>    <dbl>  <dbl>     <dbl>
  1               ACE    11 32.62500   29.0  9.257237
  2          EA Forum    41 25.84375   25.0  5.454264
  3     EA Hangout FB     5 32.50000   32.5 16.263456
  4            EA Hub    15 23.25000   22.0  5.775564
  5     EA Newsletter    27 31.23810   24.0 13.960318
  6 EA Profile Emails     7 33.66667   24.0 18.502252
  7            EAA FB    12 27.85714   29.0  8.071113
  8              EAFB    13 24.91667   24.5  4.166061
  9  FB Random Sample   258 25.72857   24.0  7.074967
 10          FB-SHARE     4 36.00000   36.0  9.899495
 # ... with 14 more rows
…
